__________
___  ____/______________ _______ _________
__  __/   __  ___/_  __ \__  __ `/__  ___/
_  /___   _  /    / /_/ /_  /_/ / _(__  )
/_____/   /_/     \____/ _\__, /  /____/
                         /____/